{
  "textures": [
    {
      "name": "board",
      "url": "assets/images/board.jpg"
    },
    {
      "name": "card/reverse",
      "url": "assets/images/card/reverse.jpg"
    },
    {
      "name": "card/da/3",
      "url": "assets/images/cards/da/3.jpg"
    }
  ],
  "texturepacks": []
}